Register_File_SubCore/Reg_File_SV/dump.vcd
$date
	Sat Jun 12 22:22:23 2021
$end
$version
	Icarus Verilog
$end
$timescale
	1s
$end
$scope module tb_top $end
$var wire 1 ! ares $end
$var reg 32 " od1 [31:0] $end
$var reg 32 # od2 [31:0] $end
$var reg 1 $ clk $end
$var reg 1 % error $end
$var integer 32 & sel [31:0] $end
$scope module r_if $end
$var wire 1 $ clk $end
$var wire 32 ' rdata1 [31:0] $end
$var wire 32 ( rdata2 [31:0] $end
$var reg 1 ! ares $end
$var reg 5 ) raddr1 [4:0] $end
$var reg 5 * raddr2 [4:0] $end
$var reg 5 + waddr [4:0] $end
$var reg 32 , wdata [31:0] $end
$var reg 1 - wen $end
$scope task issue_rd1 $end
$var reg 5 . addr [4:0] $end
$var reg 32 / rd1 [31:0] $end
$upscope $end
$scope task issue_rd2 $end
$var reg 5 0 addr [4:0] $end
$var reg 32 1 rd2 [31:0] $end
$upscope $end
$scope task issue_reset $end
$upscope $end
$scope task issue_wr $end
$var reg 5 2 addr [4:0] $end
$var reg 32 3 wd [31:0] $end
$upscope $end
$upscope $end
$scope module uut $end
$var wire 32 4 qa_out [31:0] $end
$var wire 32 5 qb_out [31:0] $end
$var wire 5 6 ra_dec [4:0] $end
$var wire 5 7 rb_dec [4:0] $end
$var wire 1 ! rf_ares $end
$var wire 1 $ rf_clk $end
$var wire 5 8 rw_dec [4:0] $end
$var wire 32 9 w_data_in [31:0] $end
$var wire 1 - wr_en $end
$var integer 32 : i [31:0] $end
$scope begin read_stage $end
$upscope $end
$scope begin reset_stage $end
$upscope $end
$upscope $end
$scope begin clk_gen $end
$upscope $end
$scope begin run_test $end
$upscope $end
$scope task report $end
$var reg 1 ; error $end
$upscope $end
$scope task testcase0 $end
$scope begin $ivl_for_loop0 $end
$var integer 32 < i [31:0] $end
$upscope $end
$scope begin $ivl_for_loop1 $end
$var integer 32 = ii [31:0] $end
$upscope $end
$upscope $end
$scope task testcase1 $end
$scope begin $ivl_for_loop2 $end
$var integer 32 > i [31:0] $end
$upscope $end
$upscope $end
$scope task testcase2 $end
$scope begin $ivl_for_loop3 $end
$var integer 32 ? i [31:0] $end
$upscope $end
$upscope $end
$scope task testcase3 $end
$var reg 6 @ addr [5:0] $end
$upscope $end
$upscope $end
$scope module test_p $end
$upscope $end
$enddefinitions $end
#0
$dumpvars
b100100 @
b0 ?
b0 >
b0 =
b0 <
0;
b0 :
b0 9
b0 8
b0 7
b0 6
bx 5
bx 4
b0 3
b0 2
b0 1
b0 0
b0 /
b0 .
0-
b0 ,
b0 +
b0 *
b0 )
b0 (
b0 '
b100 &
0%
0$
bx #
bx "
0!
$end
#10
1$
#20
b0 4
b0 5
b100000 :
0$
1!
#30
b100000 :
1$
#40
0$
0!
#50
1$
#60
0$
#70
1$
#80
b0 "
0$
#90
1$
#100
b1 )
b1 6
b1 .
b1 ?
b0 #
0$
#110
1$
#120
b1 *
b1 7
b1 0
0$
#130
1$
#140
b10 )
b10 6
b10 .
b10 ?
0$
#150
1$
#160
b10 *
b10 7
b10 0
0$
#170
1$
#180
b11 )
b11 6
b11 .
b11 ?
0$
#190
1$
#200
b11 *
b11 7
b11 0
0$
#210
1$
#220
b100 )
b100 6
b100 .
b100 ?
0$
#230
1$
#240
b100 *
b100 7
b100 0
0$
#250
1$
#260
b101 )
b101 6
b101 .
b101 ?
0$
#270
1$
#280
b101 *
b101 7
b101 0
0$
#290
1$
#300
b110 )
b110 6
b110 .
b110 ?
0$
#310
1$
#320
b110 *
b110 7
b110 0
0$
#330
1$
#340
b111 )
b111 6
b111 .
b111 ?
0$
#350
1$
#360
b111 *
b111 7
b111 0
0$
#370
1$
#380
b1000 )
b1000 6
b1000 .
b1000 ?
0$
#390
1$
#400
b1000 *
b1000 7
b1000 0
0$
#410
1$
#420
b1001 )
b1001 6
b1001 .
b1001 ?
0$
#430
1$
#440
b1001 *
b1001 7
b1001 0
0$
#450
1$
#460
b1010 )
b1010 6
b1010 .
b1010 ?
0$
#470
1$
#480
b1010 *
b1010 7
b1010 0
0$
#490
1$
#500
b1011 )
b1011 6
b1011 .
b1011 ?
0$
#510
1$
#520
b1011 *
b1011 7
b1011 0
0$
#530
1$
#540
b1100 )
b1100 6
b1100 .
b1100 ?
0$
#550
1$
#560
b1100 *
b1100 7
b1100 0
0$
#570
1$
#580
b1101 )
b1101 6
b1101 .
b1101 ?
0$
#590
1$
#600
b1101 *
b1101 7
b1101 0
0$
#610
1$
#620
b1110 )
b1110 6
b1110 .
b1110 ?
0$
#630
1$
#640
b1110 *
b1110 7
b1110 0
0$
#650
1$
#660
b1111 )
b1111 6
b1111 .
b1111 ?
0$
#670
1$
#680
b1111 *
b1111 7
b1111 0
0$
#690
1$
#700
b10000 )
b10000 6
b10000 .
b10000 ?
0$
#710
1$
#720
b10000 *
b10000 7
b10000 0
0$
#730
1$
#740
b10001 )
b10001 6
b10001 .
b10001 ?
0$
#750
1$
#760
b10001 *
b10001 7
b10001 0
0$
#770
1$
#780
b10010 )
b10010 6
b10010 .
b10010 ?
0$
#790
1$
#800
b10010 *
b10010 7
b10010 0
0$
#810
1$
#820
b10011 )
b10011 6
b10011 .
b10011 ?
0$
#830
1$
#840
b10011 *
b10011 7
b10011 0
0$
#850
1$
#860
b10100 )
b10100 6
b10100 .
b10100 ?
0$
#870
1$
#880
b10100 *
b10100 7
b10100 0
0$
#890
1$
#900
b10101 )
b10101 6
b10101 .
b10101 ?
0$
#910
1$
#920
b10101 *
b10101 7
b10101 0
0$
#930
1$
#940
b10110 )
b10110 6
b10110 .
b10110 ?
0$
#950
1$
#960
b10110 *
b10110 7
b10110 0
0$
#970
1$
#980
b10111 )
b10111 6
b10111 .
b10111 ?
0$
#990
1$
#1000
b10111 *
b10111 7
b10111 0
0$
#1010
1$
#1020
b11000 )
b11000 6
b11000 .
b11000 ?
0$
#1030
1$
#1040
b11000 *
b11000 7
b11000 0
0$
#1050
1$
#1060
b11001 )
b11001 6
b11001 .
b11001 ?
0$
#1070
1$
#1080
b11001 *
b11001 7
b11001 0
0$
#1090
1$
#1100
b11010 )
b11010 6
b11010 .
b11010 ?
0$
#1110
1$
#1120
b11010 *
b11010 7
b11010 0
0$
#1130
1$
#1140
b11011 )
b11011 6
b11011 .
b11011 ?
0$
#1150
1$
#1160
b11011 *
b11011 7
b11011 0
0$
#1170
1$
#1180
b11100 )
b11100 6
b11100 .
b11100 ?
0$
#1190
1$
#1200
b11100 *
b11100 7
b11100 0
0$
#1210
1$
#1220
b11101 )
b11101 6
b11101 .
b11101 ?
0$
#1230
1$
#1240
b11101 *
b11101 7
b11101 0
0$
#1250
1$
#1260
b11110 )
b11110 6
b11110 .
b11110 ?
0$
#1270
1$
#1280
b11110 *
b11110 7
b11110 0
0$
#1290
1$
#1300
b11111 )
b11111 6
b11111 .
b11111 ?
0$
#1310
1$
#1320
b11111 *
b11111 7
b11111 0
0$
#1330
1$
#1340
b100000 ?
0$
