Register_File_SubCore/Reg_File_SV/dump.vcd
$date
	Wed Jun  9 20:02:24 2021
$end
$version
	Icarus Verilog
$end
$timescale
	1s
$end
$scope module tb_top $end
$var wire 1 ! ares $end
$var reg 32 " od1 [31:0] $end
$var reg 32 # od2 [31:0] $end
$var reg 1 $ clk $end
$scope module r_if $end
$var wire 1 $ clk $end
$var wire 32 % rdata1 [31:0] $end
$var wire 32 & rdata2 [31:0] $end
$var reg 1 ! ares $end
$var reg 6 ' raddr1 [5:0] $end
$var reg 6 ( raddr2 [5:0] $end
$var reg 6 ) waddr [5:0] $end
$var reg 32 * wdata [31:0] $end
$var reg 1 + wen $end
$scope task issue_rd1 $end
$var reg 6 , addr [5:0] $end
$var reg 32 - rd1 [31:0] $end
$upscope $end
$scope task issue_rd2 $end
$var reg 6 . addr [5:0] $end
$var reg 32 / rd2 [31:0] $end
$upscope $end
$scope task issue_reset $end
$upscope $end
$scope task issue_wr $end
$var reg 6 0 addr [5:0] $end
$var reg 32 1 wd [31:0] $end
$upscope $end
$upscope $end
$scope module uut $end
$var wire 32 2 a0 [31:0] $end
$var wire 32 3 a1 [31:0] $end
$var wire 32 4 a2 [31:0] $end
$var wire 32 5 a3 [31:0] $end
$var wire 32 6 a4 [31:0] $end
$var wire 32 7 a5 [31:0] $end
$var wire 32 8 a6 [31:0] $end
$var wire 32 9 a7 [31:0] $end
$var wire 32 : gp [31:0] $end
$var wire 32 ; qa_out [31:0] $end
$var wire 32 < qb_out [31:0] $end
$var wire 32 = ra [31:0] $end
$var wire 6 > ra_dec [5:0] $end
$var wire 6 ? rb_dec [5:0] $end
$var wire 1 ! rf_ares $end
$var wire 1 $ rf_clk $end
$var wire 6 @ rw_dec [5:0] $end
$var wire 32 A s0 [31:0] $end
$var wire 32 B s1 [31:0] $end
$var wire 32 C s10 [31:0] $end
$var wire 32 D s11 [31:0] $end
$var wire 32 E s2 [31:0] $end
$var wire 32 F s3 [31:0] $end
$var wire 32 G s4 [31:0] $end
$var wire 32 H s5 [31:0] $end
$var wire 32 I s6 [31:0] $end
$var wire 32 J s7 [31:0] $end
$var wire 32 K s8 [31:0] $end
$var wire 32 L s9 [31:0] $end
$var wire 32 M sp [31:0] $end
$var wire 32 N t0 [31:0] $end
$var wire 32 O t1 [31:0] $end
$var wire 32 P t2 [31:0] $end
$var wire 32 Q t3 [31:0] $end
$var wire 32 R t4 [31:0] $end
$var wire 32 S t5 [31:0] $end
$var wire 32 T t6 [31:0] $end
$var wire 32 U tp [31:0] $end
$var wire 32 V w_data_in [31:0] $end
$var wire 1 + wr_en $end
$var wire 32 W zero [31:0] $end
$var integer 32 X i [31:0] $end
$scope begin read_stage $end
$upscope $end
$scope begin reset_stage $end
$upscope $end
$upscope $end
$scope begin $ivl_for_loop0 $end
$var integer 32 Y i [31:0] $end
$upscope $end
$scope begin $ivl_for_loop1 $end
$var integer 32 Z ii [31:0] $end
$upscope $end
$scope begin clk_gen $end
$upscope $end
$upscope $end
$scope module test_p $end
$upscope $end
$enddefinitions $end
#0
$dumpvars
b0 Z
b0 Y
b0 X
bx W
b0 V
bx U
bx T
bx S
bx R
bx Q
bx P
bx O
bx N
bx M
bx L
bx K
bx J
bx I
bx H
bx G
bx F
bx E
bx D
bx C
bx B
bx A
b0 @
b0 ?
b0 >
bx =
bx <
bx ;
bx :
bx 9
bx 8
bx 7
bx 6
bx 5
bx 4
bx 3
bx 2
b0 1
b0 0
b0 /
b0 .
b0 -
b0 ,
0+
b0 *
b0 )
b0 (
b0 '
b0 &
b0 %
0$
bx #
bx "
0!
$end
#10
1$
#20
b0 D
b0 C
b0 L
b0 K
b0 J
b0 I
b0 H
b0 G
b0 F
b0 E
b0 T
b0 S
b0 R
b0 Q
b0 9
b0 8
b0 7
b0 6
b0 5
b0 4
b0 3
b0 2
b0 B
b0 A
b0 P
b0 O
b0 N
b0 U
b0 :
b0 M
b0 =
b0 ;
b0 <
b0 W
b100000 X
0$
1!
#30
b100000 X
1$
#40
0$
0!
#50
1+
1$
#60
b1 1
b1 0
b1 Y
0+
0$
#70
b1 =
1+
b1 *
b1 V
b1 )
b1 @
1$
#80
b10 1
b10 0
b10 Y
0+
0$
#90
b10 M
1+
b10 *
b10 V
b10 )
b10 @
1$
#100
b11 1
b11 0
b11 Y
0+
0$
#110
b11 :
1+
b11 *
b11 V
b11 )
b11 @
1$
#120
b100 1
b100 0
b100 Y
0+
0$
#130
b100 U
1+
b100 *
b100 V
b100 )
b100 @
1$
#140
b101 1
b101 0
b101 Y
0+
0$
#150
b101 N
1+
b101 *
b101 V
b101 )
b101 @
1$
#160
b110 1
b110 0
b110 Y
0+
0$
#170
b110 O
1+
b110 *
b110 V
b110 )
b110 @
1$
#180
b111 1
b111 0
b111 Y
0+
0$
#190
b111 P
1+
b111 *
b111 V
b111 )
b111 @
1$
#200
b1000 1
b1000 0
b1000 Y
0+
0$
#210
b1000 A
1+
b1000 *
b1000 V
b1000 )
b1000 @
1$
#220
b1001 1
b1001 0
b1001 Y
0+
0$
#230
b1001 B
1+
b1001 *
b1001 V
b1001 )
b1001 @
1$
#240
b1010 1
b1010 0
b1010 Y
0+
0$
#250
b1010 2
1+
b1010 *
b1010 V
b1010 )
b1010 @
1$
#260
b1011 1
b1011 0
b1011 Y
0+
0$
#270
b1011 3
1+
b1011 *
b1011 V
b1011 )
b1011 @
1$
#280
b1100 1
b1100 0
b1100 Y
0+
0$
#290
b1100 4
1+
b1100 *
b1100 V
b1100 )
b1100 @
1$
#300
b1101 1
b1101 0
b1101 Y
0+
0$
#310
b1101 5
1+
b1101 *
b1101 V
b1101 )
b1101 @
1$
#320
b1110 1
b1110 0
b1110 Y
0+
0$
#330
b1110 6
1+
b1110 *
b1110 V
b1110 )
b1110 @
1$
#340
b1111 1
b1111 0
b1111 Y
0+
0$
#350
b1111 7
1+
b1111 *
b1111 V
b1111 )
b1111 @
1$
#360
b10000 1
b10000 0
b10000 Y
0+
0$
#370
b10000 8
1+
b10000 *
b10000 V
b10000 )
b10000 @
1$
#380
b10001 1
b10001 0
b10001 Y
0+
0$
#390
b10001 9
1+
b10001 *
b10001 V
b10001 )
b10001 @
1$
#400
b10010 1
b10010 0
b10010 Y
0+
0$
#410
b10010 Q
1+
b10010 *
b10010 V
b10010 )
b10010 @
1$
#420
b10011 1
b10011 0
b10011 Y
0+
0$
#430
b10011 R
1+
b10011 *
b10011 V
b10011 )
b10011 @
1$
#440
b10100 1
b10100 0
b10100 Y
0+
0$
#450
b10100 S
1+
b10100 *
b10100 V
b10100 )
b10100 @
1$
#460
b10101 1
b10101 0
b10101 Y
0+
0$
#470
b10101 T
1+
b10101 *
b10101 V
b10101 )
b10101 @
1$
#480
b10110 1
b10110 0
b10110 Y
0+
0$
#490
b10110 E
1+
b10110 *
b10110 V
b10110 )
b10110 @
1$
#500
b10111 1
b10111 0
b10111 Y
0+
0$
#510
b10111 F
1+
b10111 *
b10111 V
b10111 )
b10111 @
1$
#520
b11000 1
b11000 0
b11000 Y
0+
0$
#530
b11000 G
1+
b11000 *
b11000 V
b11000 )
b11000 @
1$
#540
b11001 1
b11001 0
b11001 Y
0+
0$
#550
b11001 H
1+
b11001 *
b11001 V
b11001 )
b11001 @
1$
#560
b11010 1
b11010 0
b11010 Y
0+
0$
#570
b11010 I
1+
b11010 *
b11010 V
b11010 )
b11010 @
1$
#580
b11011 1
b11011 0
b11011 Y
0+
0$
#590
b11011 J
1+
b11011 *
b11011 V
b11011 )
b11011 @
1$
#600
b11100 1
b11100 0
b11100 Y
0+
0$
#610
b11100 K
1+
b11100 *
b11100 V
b11100 )
b11100 @
1$
#620
b11101 1
b11101 0
b11101 Y
0+
0$
#630
b11101 L
1+
b11101 *
b11101 V
b11101 )
b11101 @
1$
#640
b11110 1
b11110 0
b11110 Y
0+
0$
#650
b11110 C
1+
b11110 *
b11110 V
b11110 )
b11110 @
1$
#660
b11111 1
b11111 0
b11111 Y
0+
0$
#670
b11111 D
1+
b11111 *
b11111 V
b11111 )
b11111 @
1$
#680
b0 #
b0 "
b100000 Y
0+
0$
#690
b1 #
b1 /
b1 &
b1 <
b1 (
b1 ?
b1 .
b1 "
b1 -
b1 %
b1 ;
b1 '
b1 >
b1 ,
b1 Z
1$
#700
0$
#710
b10 #
b10 /
b10 &
b10 <
b10 (
b10 ?
b10 .
b10 "
b10 -
b10 %
b10 ;
b10 '
b10 >
b10 ,
b10 Z
1$
#720
0$
#730
b11 #
b11 /
b11 &
b11 <
b11 (
b11 ?
b11 .
b11 "
b11 -
b11 %
b11 ;
b11 '
b11 >
b11 ,
b11 Z
1$
#740
0$
#750
b100 #
b100 /
b100 &
b100 <
b100 (
b100 ?
b100 .
b100 "
b100 -
b100 %
b100 ;
b100 '
b100 >
b100 ,
b100 Z
1$
#760
0$
#770
b101 #
b101 /
b101 &
b101 <
b101 (
b101 ?
b101 .
b101 "
b101 -
b101 %
b101 ;
b101 '
b101 >
b101 ,
b101 Z
1$
#780
0$
#790
b110 #
b110 /
b110 &
b110 <
b110 (
b110 ?
b110 .
b110 "
b110 -
b110 %
b110 ;
b110 '
b110 >
b110 ,
b110 Z
1$
#800
0$
#810
b111 #
b111 /
b111 &
b111 <
b111 (
b111 ?
b111 .
b111 "
b111 -
b111 %
b111 ;
b111 '
b111 >
b111 ,
b111 Z
1$
#820
0$
#830
b1000 #
b1000 /
b1000 &
b1000 <
b1000 (
b1000 ?
b1000 .
b1000 "
b1000 -
b1000 %
b1000 ;
b1000 '
b1000 >
b1000 ,
b1000 Z
1$
#840
0$
#850
b1001 #
b1001 /
b1001 &
b1001 <
b1001 (
b1001 ?
b1001 .
b1001 "
b1001 -
b1001 %
b1001 ;
b1001 '
b1001 >
b1001 ,
b1001 Z
1$
#860
0$
#870
b1010 #
b1010 /
b1010 &
b1010 <
b1010 (
b1010 ?
b1010 .
b1010 "
b1010 -
b1010 %
b1010 ;
b1010 '
b1010 >
b1010 ,
b1010 Z
1$
#880
0$
#890
b1011 #
b1011 /
b1011 &
b1011 <
b1011 (
b1011 ?
b1011 .
b1011 "
b1011 -
b1011 %
b1011 ;
b1011 '
b1011 >
b1011 ,
b1011 Z
1$
#900
0$
#910
b1100 #
b1100 /
b1100 &
b1100 <
b1100 (
b1100 ?
b1100 .
b1100 "
b1100 -
b1100 %
b1100 ;
b1100 '
b1100 >
b1100 ,
b1100 Z
1$
#920
0$
#930
b1101 #
b1101 /
b1101 &
b1101 <
b1101 (
b1101 ?
b1101 .
b1101 "
b1101 -
b1101 %
b1101 ;
b1101 '
b1101 >
b1101 ,
b1101 Z
1$
#940
0$
#950
b1110 #
b1110 /
b1110 &
b1110 <
b1110 (
b1110 ?
b1110 .
b1110 "
b1110 -
b1110 %
b1110 ;
b1110 '
b1110 >
b1110 ,
b1110 Z
1$
#960
0$
#970
b1111 #
b1111 /
b1111 &
b1111 <
b1111 (
b1111 ?
b1111 .
b1111 "
b1111 -
b1111 %
b1111 ;
b1111 '
b1111 >
b1111 ,
b1111 Z
1$
#980
0$
#990
b10000 #
b10000 /
b10000 &
b10000 <
b10000 (
b10000 ?
b10000 .
b10000 "
b10000 -
b10000 %
b10000 ;
b10000 '
b10000 >
b10000 ,
b10000 Z
1$
#1000
0$
#1010
b10001 #
b10001 /
b10001 &
b10001 <
b10001 (
b10001 ?
b10001 .
b10001 "
b10001 -
b10001 %
b10001 ;
b10001 '
b10001 >
b10001 ,
b10001 Z
1$
#1020
0$
#1030
b10010 #
b10010 /
b10010 &
b10010 <
b10010 (
b10010 ?
b10010 .
b10010 "
b10010 -
b10010 %
b10010 ;
b10010 '
b10010 >
b10010 ,
b10010 Z
1$
#1040
0$
#1050
b10011 #
b10011 /
b10011 &
b10011 <
b10011 (
b10011 ?
b10011 .
b10011 "
b10011 -
b10011 %
b10011 ;
b10011 '
b10011 >
b10011 ,
b10011 Z
1$
#1060
0$
#1070
b10100 #
b10100 /
b10100 &
b10100 <
b10100 (
b10100 ?
b10100 .
b10100 "
b10100 -
b10100 %
b10100 ;
b10100 '
b10100 >
b10100 ,
b10100 Z
1$
#1080
0$
#1090
b10101 #
b10101 /
b10101 &
b10101 <
b10101 (
b10101 ?
b10101 .
b10101 "
b10101 -
b10101 %
b10101 ;
b10101 '
b10101 >
b10101 ,
b10101 Z
1$
#1100
0$
#1110
b10110 #
b10110 /
b10110 &
b10110 <
b10110 (
b10110 ?
b10110 .
b10110 "
b10110 -
b10110 %
b10110 ;
b10110 '
b10110 >
b10110 ,
b10110 Z
1$
#1120
0$
#1130
b10111 #
b10111 /
b10111 &
b10111 <
b10111 (
b10111 ?
b10111 .
b10111 "
b10111 -
b10111 %
b10111 ;
b10111 '
b10111 >
b10111 ,
b10111 Z
1$
#1140
0$
#1150
b11000 #
b11000 /
b11000 &
b11000 <
b11000 (
b11000 ?
b11000 .
b11000 "
b11000 -
b11000 %
b11000 ;
b11000 '
b11000 >
b11000 ,
b11000 Z
1$
#1160
0$
#1170
b11001 #
b11001 /
b11001 &
b11001 <
b11001 (
b11001 ?
b11001 .
b11001 "
b11001 -
b11001 %
b11001 ;
b11001 '
b11001 >
b11001 ,
b11001 Z
1$
#1180
0$
#1190
b11010 #
b11010 /
b11010 &
b11010 <
b11010 (
b11010 ?
b11010 .
b11010 "
b11010 -
b11010 %
b11010 ;
b11010 '
b11010 >
b11010 ,
b11010 Z
1$
#1200
0$
#1210
b11011 #
b11011 /
b11011 &
b11011 <
b11011 (
b11011 ?
b11011 .
b11011 "
b11011 -
b11011 %
b11011 ;
b11011 '
b11011 >
b11011 ,
b11011 Z
1$
#1220
0$
#1230
b11100 #
b11100 /
b11100 &
b11100 <
b11100 (
b11100 ?
b11100 .
b11100 "
b11100 -
b11100 %
b11100 ;
b11100 '
b11100 >
b11100 ,
b11100 Z
1$
#1240
0$
#1250
b11101 #
b11101 /
b11101 &
b11101 <
b11101 (
b11101 ?
b11101 .
b11101 "
b11101 -
b11101 %
b11101 ;
b11101 '
b11101 >
b11101 ,
b11101 Z
1$
#1260
0$
#1270
b11110 #
b11110 /
b11110 &
b11110 <
b11110 (
b11110 ?
b11110 .
b11110 "
b11110 -
b11110 %
b11110 ;
b11110 '
b11110 >
b11110 ,
b11110 Z
1$
#1280
0$
#1290
b11111 #
b11111 /
b11111 &
b11111 <
b11111 (
b11111 ?
b11111 .
b11111 "
b11111 -
b11111 %
b11111 ;
b11111 '
b11111 >
b11111 ,
b11111 Z
1$
#1300
0$
#1310
b100000 Z
1$
